{
  "version": "14.0.0",
  "vulnerabilities": [],
  "remediations": [],
  "scan": {
    "scanner": {
      "id": "gemnasium-python",
      "name": "gemnasium-python",
      "url": "https://gitlab.com/gitlab-org/security-products/analyzers/gemnasium-python",
      "vendor": {
        "name": "GitLab"
      },
      "version": "2.15.0"
    },
    "type": "dependency_scanning",
    "start_time": "2020-10-22T09:04:03",
    "end_time": "2020-10-22T09:04:08",
    "status": "success"
  }
}
