{
  "version": "14.0.0",
  "vulnerabilities": [
    {
      "id": "d36d54db06e0e48b627dd3217dd460d69cf807594a0d1f5788313772b3bb0fd8",
      "category": "dependency_scanning",
      "name": "SQL Injection",
      "message": "SQL Injection in Django",
      "description": "Due to an error in shallow key transformation, key and index lookups for `django.contrib.postgres.fields.JSONField`, and key lookups for `django.contrib.postgres.fields.HStoreField`, were subject to SQL injection. This could, for example, be exploited via crafted use of `OR 1=1` in a key or index name to return all records, using a suitably crafted dictionary, with dictionary expansion, as the `**kwargs` passed to the `QuerySet.filter()` function.",
      "cve": "cust-reqs.foo:Django:gemnasium:1c876f07-617f-4ba9-8ea3-a871d14bcde2",
      "severity": "Critical",
      "solution": "Upgrade to versions 1.11.23, 2.1.11, 2.2.4 or above.",
      "scanner": {
        "id": "gemnasium",
        "name": "Gemnasium"
      },
      "location": {
        "file": "cust-reqs.foo",
        "dependency": {
          "package": {
            "name": "Django"
          },
          "version": "1.11.4"
        }
      },
      "identifiers": [
        {
          "type": "gemnasium",
          "name": "Gemnasium-1c876f07-617f-4ba9-8ea3-a871d14bcde2",
          "value": "1c876f07-617f-4ba9-8ea3-a871d14bcde2",
          "url": "https://gitlab.com/gitlab-org/security-products/gemnasium-db/-/blob/v1.2.142/pypi/Django/CVE-2019-14234.yml"
        },
        {
          "type": "cve",
          "name": "CVE-2019-14234",
          "value": "CVE-2019-14234",
          "url": "https://cve.mitre.org/cgi-bin/cvename.cgi?name=CVE-2019-14234"
        }
      ],
      "links": [
        {
          "url": "https://docs.djangoproject.com/en/dev/releases/security/"
        },
        {
          "url": "https://nvd.nist.gov/vuln/detail/CVE-2019-14234"
        },
        {
          "url": "https://www.djangoproject.com/weblog/2019/aug/01/security-releases/"
        }
      ]
    },
    {
      "id": "86a46b786c1872e8c9f673f6363d2c75f522839369b8d041d75f9ba400ad322d",
      "category": "dependency_scanning",
      "name": "Weak Password Recovery Mechanism for Forgotten Password",
      "message": "Weak Password Recovery Mechanism for Forgotten Password in Django",
      "description": "Django allows account takeover. A suitably crafted email address (that is equal to an existing user's email address after case transformation of Unicode characters) would allow an attacker to be sent a password reset token for the matched user account. (One mitigation in the new releases is to send password reset tokens only to the registered user email address.)",
      "cve": "cust-reqs.foo:Django:gemnasium:e1db52dc-7f84-4281-8b82-6a64da18a721",
      "severity": "Critical",
      "solution": "Upgrade to versions 1.11.27, 2.2.9, 3.0.1 or above.",
      "scanner": {
        "id": "gemnasium",
        "name": "Gemnasium"
      },
      "location": {
        "file": "cust-reqs.foo",
        "dependency": {
          "package": {
            "name": "Django"
          },
          "version": "1.11.4"
        }
      },
      "identifiers": [
        {
          "type": "gemnasium",
          "name": "Gemnasium-e1db52dc-7f84-4281-8b82-6a64da18a721",
          "value": "e1db52dc-7f84-4281-8b82-6a64da18a721",
          "url": "https://gitlab.com/gitlab-org/security-products/gemnasium-db/-/blob/v1.2.142/pypi/Django/CVE-2019-19844.yml"
        },
        {
          "type": "cve",
          "name": "CVE-2019-19844",
          "value": "CVE-2019-19844",
          "url": "https://cve.mitre.org/cgi-bin/cvename.cgi?name=CVE-2019-19844"
        }
      ],
      "links": [
        {
          "url": "https://docs.djangoproject.com/en/dev/releases/security/"
        },
        {
          "url": "https://nvd.nist.gov/vuln/detail/CVE-2019-19844"
        },
        {
          "url": "https://www.djangoproject.com/weblog/2019/dec/18/security-releases/"
        }
      ]
    },
    {
      "id": "00aa273663588ea12234305ff7a45c91e9c2e6181fea1ad6069141c95d7db2dd",
      "category": "dependency_scanning",
      "name": "SQL Injection",
      "message": "SQL Injection in Django",
      "description": "Django allows SQL Injection if untrusted data is used as a delimiter (e.g., in Django applications that offer downloads of data as a series of rows with a user-specified column delimiter). By passing a suitably crafted delimiter to a `contrib.postgres.aggregates.StringAgg` instance, it was possible to break escaping and inject malicious SQL.",
      "cve": "cust-reqs.foo:Django:gemnasium:ea400310-29db-4c48-8236-42d462d1de1c",
      "severity": "Critical",
      "solution": "Upgrade to versions 1.11.28, 2.2.10, 3.0.3 or above.",
      "scanner": {
        "id": "gemnasium",
        "name": "Gemnasium"
      },
      "location": {
        "file": "cust-reqs.foo",
        "dependency": {
          "package": {
            "name": "Django"
          },
          "version": "1.11.4"
        }
      },
      "identifiers": [
        {
          "type": "gemnasium",
          "name": "Gemnasium-ea400310-29db-4c48-8236-42d462d1de1c",
          "value": "ea400310-29db-4c48-8236-42d462d1de1c",
          "url": "https://gitlab.com/gitlab-org/security-products/gemnasium-db/-/blob/v1.2.142/pypi/Django/CVE-2020-7471.yml"
        },
        {
          "type": "cve",
          "name": "CVE-2020-7471",
          "value": "CVE-2020-7471",
          "url": "https://cve.mitre.org/cgi-bin/cvename.cgi?name=CVE-2020-7471"
        }
      ],
      "links": [
        {
          "url": "https://docs.djangoproject.com/en/3.0/releases/security/"
        },
        {
          "url": "https://nvd.nist.gov/vuln/detail/CVE-2020-7471"
        },
        {
          "url": "https://www.djangoproject.com/weblog/2020/feb/03/security-releases/"
        }
      ]
    },
    {
      "id": "1692903f6574d5ba1b3cda759d290eaa486048e7cd5af1fc100790b04dd1ec2d",
      "category": "dependency_scanning",
      "name": "Buffer Overflow",
      "message": "Buffer Overflow in Pillow",
      "description": "`libImaging/SgiRleDecode.c` in Pillow has an SGI buffer overflow.",
      "cve": "cust-reqs.foo:Pillow:gemnasium:752aa944-4ae1-4f71-b11b-21c4028770ed",
      "severity": "Critical",
      "solution": "Upgrade to version 6.2.2 or above.",
      "scanner": {
        "id": "gemnasium",
        "name": "Gemnasium"
      },
      "location": {
        "file": "cust-reqs.foo",
        "dependency": {
          "package": {
            "name": "Pillow"
          },
          "version": "3.3.1"
        }
      },
      "identifiers": [
        {
          "type": "gemnasium",
          "name": "Gemnasium-752aa944-4ae1-4f71-b11b-21c4028770ed",
          "value": "752aa944-4ae1-4f71-b11b-21c4028770ed",
          "url": "https://gitlab.com/gitlab-org/security-products/gemnasium-db/-/blob/v1.2.142/pypi/Pillow/CVE-2020-5311.yml"
        },
        {
          "type": "cve",
          "name": "CVE-2020-5311",
          "value": "CVE-2020-5311",
          "url": "https://cve.mitre.org/cgi-bin/cvename.cgi?name=CVE-2020-5311"
        }
      ],
      "links": [
        {
          "url": "https://nvd.nist.gov/vuln/detail/CVE-2020-5311"
        }
      ]
    },
    {
      "id": "43c1143db708fb080d245171640be9323f0fcef432165fc059849bd68b2eb15e",
      "category": "dependency_scanning",
      "name": "Buffer Overflow",
      "message": "Buffer Overflow in Pillow",
      "description": "`libImaging/PcxDecode.c` in Pillow before 6.2.2 has a PCX P mode buffer overflow.",
      "cve": "cust-reqs.foo:Pillow:gemnasium:a8aa7099-da93-4ca0-94be-f52295393d0d",
      "severity": "Critical",
      "solution": "Upgrade to version 6.2.2 or above.",
      "scanner": {
        "id": "gemnasium",
        "name": "Gemnasium"
      },
      "location": {
        "file": "cust-reqs.foo",
        "dependency": {
          "package": {
            "name": "Pillow"
          },
          "version": "3.3.1"
        }
      },
      "identifiers": [
        {
          "type": "gemnasium",
          "name": "Gemnasium-a8aa7099-da93-4ca0-94be-f52295393d0d",
          "value": "a8aa7099-da93-4ca0-94be-f52295393d0d",
          "url": "https://gitlab.com/gitlab-org/security-products/gemnasium-db/-/blob/v1.2.142/pypi/Pillow/CVE-2020-5312.yml"
        },
        {
          "type": "cve",
          "name": "CVE-2020-5312",
          "value": "CVE-2020-5312",
          "url": "https://cve.mitre.org/cgi-bin/cvename.cgi?name=CVE-2020-5312"
        }
      ],
      "links": [
        {
          "url": "https://nvd.nist.gov/vuln/detail/CVE-2020-5312"
        }
      ]
    },
    {
      "id": "4d8a924560961d0c23658ad2d44f09903c3713eb044ac943c78fd9a74b716e8b",
      "category": "dependency_scanning",
      "name": "Improper Input Validation",
      "message": "Improper Input Validation in Django",
      "description": "A call to the methods `chars()` or `words() in `django.utils.text.Truncator` with the argument `html=True` evaluates certain inputs extremely slowly due to a catastrophic backtracking vulnerability in a regular expression. The `chars()` and `words()` methods are used to implement the `truncatechars_html` and `truncatewords_html` template filters, which were thus vulnerable.",
      "cve": "cust-reqs.foo:Django:gemnasium:3fee86b0-d8c1-4c65-9242-7607562190ae",
      "severity": "High",
      "solution": "Upgrade to versions 1.11.23, 2.1.11, 2.2.4 or above.",
      "scanner": {
        "id": "gemnasium",
        "name": "Gemnasium"
      },
      "location": {
        "file": "cust-reqs.foo",
        "dependency": {
          "package": {
            "name": "Django"
          },
          "version": "1.11.4"
        }
      },
      "identifiers": [
        {
          "type": "gemnasium",
          "name": "Gemnasium-3fee86b0-d8c1-4c65-9242-7607562190ae",
          "value": "3fee86b0-d8c1-4c65-9242-7607562190ae",
          "url": "https://gitlab.com/gitlab-org/security-products/gemnasium-db/-/blob/v1.2.142/pypi/Django/CVE-2019-14232.yml"
        },
        {
          "type": "cve",
          "name": "CVE-2019-14232",
          "value": "CVE-2019-14232",
          "url": "https://cve.mitre.org/cgi-bin/cvename.cgi?name=CVE-2019-14232"
        }
      ],
      "links": [
        {
          "url": "https://docs.djangoproject.com/en/dev/releases/security/"
        },
        {
          "url": "https://nvd.nist.gov/vuln/detail/CVE-2019-14232"
        },
        {
          "url": "https://www.djangoproject.com/weblog/2019/aug/01/security-releases/"
        }
      ]
    },
    {
      "id": "5f86b059af5108201be34dc5645415f9f7ad100c30b422d44172bfab14ad7b22",
      "category": "dependency_scanning",
      "name": "Denial-of-service",
      "message": "Denial-of-service in Django",
      "description": "If passed certain inputs, `django.utils.encoding.uri_to_iri` could lead to significant memory usage due to a recursion when repercent-encoding invalid UTF-8 octet sequences.",
      "cve": "cust-reqs.foo:Django:gemnasium:49afe3f9-e7ab-4d52-ad25-6e04bfdd670d",
      "severity": "High",
      "solution": "Upgrade to versions 1.11.23, 2.1.11, 2.2.4 or above.",
      "scanner": {
        "id": "gemnasium",
        "name": "Gemnasium"
      },
      "location": {
        "file": "cust-reqs.foo",
        "dependency": {
          "package": {
            "name": "Django"
          },
          "version": "1.11.4"
        }
      },
      "identifiers": [
        {
          "type": "gemnasium",
          "name": "Gemnasium-49afe3f9-e7ab-4d52-ad25-6e04bfdd670d",
          "value": "49afe3f9-e7ab-4d52-ad25-6e04bfdd670d",
          "url": "https://gitlab.com/gitlab-org/security-products/gemnasium-db/-/blob/v1.2.142/pypi/Django/CVE-2019-14235.yml"
        },
        {
          "type": "cve",
          "name": "CVE-2019-14235",
          "value": "CVE-2019-14235",
          "url": "https://cve.mitre.org/cgi-bin/cvename.cgi?name=CVE-2019-14235"
        }
      ],
      "links": [
        {
          "url": "https://docs.djangoproject.com/en/dev/releases/security/"
        },
        {
          "url": "https://nvd.nist.gov/vuln/detail/CVE-2019-14235"
        },
        {
          "url": "https://www.djangoproject.com/weblog/2019/aug/01/security-releases/"
        }
      ]
    },
    {
      "id": "b0fa56221ab5014a44411354df82d8b2c6f11958205f17f810701dbd792d18af",
      "category": "dependency_scanning",
      "name": "Improper Input Validation",
      "message": "Improper Input Validation in Django",
      "description": "Due to the behaviour of the underlying HTMLParser, `django.utils.html.strip_tags` would be extremely slow to evaluate certain inputs containing large sequences of nested incomplete HTML entities.",
      "cve": "cust-reqs.foo:Django:gemnasium:4be2dbd8-301a-48cd-8ffd-db2edf367ac4",
      "severity": "High",
      "solution": "Upgrade to versions 1.11.23, 2.1.11, 2.2.4 or above.",
      "scanner": {
        "id": "gemnasium",
        "name": "Gemnasium"
      },
      "location": {
        "file": "cust-reqs.foo",
        "dependency": {
          "package": {
            "name": "Django"
          },
          "version": "1.11.4"
        }
      },
      "identifiers": [
        {
          "type": "gemnasium",
          "name": "Gemnasium-4be2dbd8-301a-48cd-8ffd-db2edf367ac4",
          "value": "4be2dbd8-301a-48cd-8ffd-db2edf367ac4",
          "url": "https://gitlab.com/gitlab-org/security-products/gemnasium-db/-/blob/v1.2.142/pypi/Django/CVE-2019-14233.yml"
        },
        {
          "type": "cve",
          "name": "CVE-2019-14233",
          "value": "CVE-2019-14233",
          "url": "https://cve.mitre.org/cgi-bin/cvename.cgi?name=CVE-2019-14233"
        }
      ],
      "links": [
        {
          "url": "https://docs.djangoproject.com/en/dev/releases/security/"
        },
        {
          "url": "https://nvd.nist.gov/vuln/detail/CVE-2019-14233"
        },
        {
          "url": "https://www.djangoproject.com/weblog/2019/aug/01/security-releases/"
        }
      ]
    },
    {
      "id": "dd77fe70e9f9f9d9932a8d66fc8da653eeb0046a9c5e16ce55ab79ba46e8d496",
      "category": "dependency_scanning",
      "name": "SQL Injection",
      "message": "SQL Injection in Django",
      "description": "Django allows SQL Injection if untrusted data is used as a tolerance parameter in GIS functions and aggregates on Oracle. By passing a suitably crafted tolerance to GIS functions and aggregates on Oracle, it was possible to break escaping and inject malicious SQL.",
      "cve": "cust-reqs.foo:Django:gemnasium:5295f830-9e63-4a53-a81c-c6a7745e7aa8",
      "severity": "High",
      "solution": "Upgrade to versions 1.11.29, 2.2.11, 3.0.4 or above.",
      "scanner": {
        "id": "gemnasium",
        "name": "Gemnasium"
      },
      "location": {
        "file": "cust-reqs.foo",
        "dependency": {
          "package": {
            "name": "Django"
          },
          "version": "1.11.4"
        }
      },
      "identifiers": [
        {
          "type": "gemnasium",
          "name": "Gemnasium-5295f830-9e63-4a53-a81c-c6a7745e7aa8",
          "value": "5295f830-9e63-4a53-a81c-c6a7745e7aa8",
          "url": "https://gitlab.com/gitlab-org/security-products/gemnasium-db/-/blob/v1.2.142/pypi/Django/CVE-2020-9402.yml"
        },
        {
          "type": "cve",
          "name": "CVE-2020-9402",
          "value": "CVE-2020-9402",
          "url": "https://cve.mitre.org/cgi-bin/cvename.cgi?name=CVE-2020-9402"
        }
      ],
      "links": [
        {
          "url": "https://docs.djangoproject.com/en/3.0/releases/security/"
        },
        {
          "url": "https://nvd.nist.gov/vuln/detail/CVE-2020-9402"
        },
        {
          "url": "https://www.djangoproject.com/weblog/2020/mar/04/security-releases/"
        }
      ]
    },
    {
      "id": "47aed8ca487c0ea045952ebc88d5707adfdd63f0fe6013cda32d89149226c204",
      "category": "dependency_scanning",
      "name": "Uncontrolled Memory Consumption",
      "message": "Uncontrolled Memory Consumption in Django",
      "description": "Django allows Uncontrolled Memory Consumption via a malicious attacker-supplied value to the `django.utils.numberformat.format()` function.",
      "cve": "cust-reqs.foo:Django:gemnasium:aa6b0729-ecca-4f48-8ea0-b364044c09cc",
      "severity": "High",
      "solution": "Upgrade to versions 1.11.20, 2.0.12, 2.1.7 or above.",
      "scanner": {
        "id": "gemnasium",
        "name": "Gemnasium"
      },
      "location": {
        "file": "cust-reqs.foo",
        "dependency": {
          "package": {
            "name": "Django"
          },
          "version": "1.11.4"
        }
      },
      "identifiers": [
        {
          "type": "gemnasium",
          "name": "Gemnasium-aa6b0729-ecca-4f48-8ea0-b364044c09cc",
          "value": "aa6b0729-ecca-4f48-8ea0-b364044c09cc",
          "url": "https://gitlab.com/gitlab-org/security-products/gemnasium-db/-/blob/v1.2.142/pypi/Django/CVE-2019-6975.yml"
        },
        {
          "type": "cve",
          "name": "CVE-2019-6975",
          "value": "CVE-2019-6975",
          "url": "https://cve.mitre.org/cgi-bin/cvename.cgi?name=CVE-2019-6975"
        }
      ],
      "links": [
        {
          "url": "http://www.securityfocus.com/bid/106964"
        },
        {
          "url": "https://cve.mitre.org/cgi-bin/cvename.cgi?name=CVE-2019-6975"
        },
        {
          "url": "https://cwe.mitre.org/data/definitions/789.html"
        },
        {
          "url": "https://docs.djangoproject.com/en/dev/releases/security/"
        },
        {
          "url": "https://groups.google.com/forum/#!topic/django-announce/WTwEAprR0IQ"
        },
        {
          "url": "https://lists.fedoraproject.org/archives/list/package-announce@lists.fedoraproject.org/message/66WMXHGBXD7GSM3PEXVCMCAGLMQYHZCU/"
        },
        {
          "url": "https://lists.fedoraproject.org/archives/list/package-announce@lists.fedoraproject.org/message/HVXDOVCXLD74SHR2BENGCE2OOYYYWJHZ/"
        },
        {
          "url": "https://nvd.nist.gov/vuln/detail/CVE-2019-6975"
        },
        {
          "url": "https://usn.ubuntu.com/3890-1/"
        },
        {
          "url": "https://www.djangoproject.com/weblog/2019/feb/11/security-releases/"
        },
        {
          "url": "https://www.openwall.com/lists/oss-security/2019/02/11/1"
        }
      ]
    },
    {
      "id": "cdfa09f791bbd11e275a40ef37e25252f491615c14005e9029fc0d111f1c6d94",
      "category": "dependency_scanning",
      "name": "Out-of-bounds Read",
      "message": "Out-of-bounds Read in Pillow",
      "description": "In `libImaging/SgiRleDecode.c` in Pillow, a number of out-of-bounds reads exist in the parsing of SGI image files, a different issue than CVE-2020-5311.",
      "cve": "cust-reqs.foo:Pillow:gemnasium:28afc1ef-24dd-49ad-9563-63bc4ea7d612",
      "severity": "High",
      "solution": "Upgrade to version 7.1.0 or above.",
      "scanner": {
        "id": "gemnasium",
        "name": "Gemnasium"
      },
      "location": {
        "file": "cust-reqs.foo",
        "dependency": {
          "package": {
            "name": "Pillow"
          },
          "version": "3.3.1"
        }
      },
      "identifiers": [
        {
          "type": "gemnasium",
          "name": "Gemnasium-28afc1ef-24dd-49ad-9563-63bc4ea7d612",
          "value": "28afc1ef-24dd-49ad-9563-63bc4ea7d612",
          "url": "https://gitlab.com/gitlab-org/security-products/gemnasium-db/-/blob/v1.2.142/pypi/Pillow/CVE-2020-11538.yml"
        },
        {
          "type": "cve",
          "name": "CVE-2020-11538",
          "value": "CVE-2020-11538",
          "url": "https://cve.mitre.org/cgi-bin/cvename.cgi?name=CVE-2020-11538"
        }
      ],
      "links": [
        {
          "url": "https://nvd.nist.gov/vuln/detail/CVE-2020-11538"
        }
      ]
    },
    {
      "id": "dccb5a73a35a8f69ed80c14fb83fd9f0d5eb63267eee25205c18f64a766ebfa1",
      "category": "dependency_scanning",
      "name": "Integer Overflow or Wraparound",
      "message": "Integer Overflow or Wraparound in Pillow",
      "description": "`libImaging/TiffDecode.c` in Pillow has a TIFF decoding integer overflow, related to `realloc`.",
      "cve": "cust-reqs.foo:Pillow:gemnasium:31782843-af3d-4bf2-8e87-8721b812a3b8",
      "severity": "High",
      "solution": "Upgrade to version 6.2.2 or above.",
      "scanner": {
        "id": "gemnasium",
        "name": "Gemnasium"
      },
      "location": {
        "file": "cust-reqs.foo",
        "dependency": {
          "package": {
            "name": "Pillow"
          },
          "version": "3.3.1"
        }
      },
      "identifiers": [
        {
          "type": "gemnasium",
          "name": "Gemnasium-31782843-af3d-4bf2-8e87-8721b812a3b8",
          "value": "31782843-af3d-4bf2-8e87-8721b812a3b8",
          "url": "https://gitlab.com/gitlab-org/security-products/gemnasium-db/-/blob/v1.2.142/pypi/Pillow/CVE-2020-5310.yml"
        },
        {
          "type": "cve",
          "name": "CVE-2020-5310",
          "value": "CVE-2020-5310",
          "url": "https://cve.mitre.org/cgi-bin/cvename.cgi?name=CVE-2020-5310"
        }
      ],
      "links": [
        {
          "url": "https://nvd.nist.gov/vuln/detail/CVE-2020-5310"
        }
      ]
    },
    {
      "id": "b66bbae30bb44e5f6d62426ff6589470a1cdb1c2d5aa8de56eff3569d36a9b44",
      "category": "dependency_scanning",
      "name": "Buffer Overflow",
      "message": "Buffer Overflow in Pillow",
      "description": "`libImaging/FliDecode.c` in Pillow has an FLI buffer overflow.",
      "cve": "cust-reqs.foo:Pillow:gemnasium:69b4d580-af80-4217-a7a2-cd1c02c1e5e1",
      "severity": "High",
      "solution": "Upgrade to version 6.2.2 or above.",
      "scanner": {
        "id": "gemnasium",
        "name": "Gemnasium"
      },
      "location": {
        "file": "cust-reqs.foo",
        "dependency": {
          "package": {
            "name": "Pillow"
          },
          "version": "3.3.1"
        }
      },
      "identifiers": [
        {
          "type": "gemnasium",
          "name": "Gemnasium-69b4d580-af80-4217-a7a2-cd1c02c1e5e1",
          "value": "69b4d580-af80-4217-a7a2-cd1c02c1e5e1",
          "url": "https://gitlab.com/gitlab-org/security-products/gemnasium-db/-/blob/v1.2.142/pypi/Pillow/CVE-2020-5313.yml"
        },
        {
          "type": "cve",
          "name": "CVE-2020-5313",
          "value": "CVE-2020-5313",
          "url": "https://cve.mitre.org/cgi-bin/cvename.cgi?name=CVE-2020-5313"
        }
      ],
      "links": [
        {
          "url": "https://nvd.nist.gov/vuln/detail/CVE-2020-5313"
        }
      ]
    },
    {
      "id": "30dec7a5670ee6fe1e02718ac9f10dedfbffc43987b01a5bb52069fd635f1ce1",
      "category": "dependency_scanning",
      "name": "Sign Extension in Storage.c",
      "message": "Sign Extension in Storage.c in Pillow",
      "description": "Pillow allows context-dependent attackers to execute arbitrary code by using the \"crafted image file\" approach, related to an \"Insecure Sign Extension\" issue affecting the `ImagingNew` in `Storage.c` component.",
      "cve": "cust-reqs.foo:Pillow:gemnasium:96957bc4-9d00-4a2f-b179-24d79eb24631",
      "severity": "High",
      "solution": "Upgrade to latest version.",
      "scanner": {
        "id": "gemnasium",
        "name": "Gemnasium"
      },
      "location": {
        "file": "cust-reqs.foo",
        "dependency": {
          "package": {
            "name": "Pillow"
          },
          "version": "3.3.1"
        }
      },
      "identifiers": [
        {
          "type": "gemnasium",
          "name": "Gemnasium-96957bc4-9d00-4a2f-b179-24d79eb24631",
          "value": "96957bc4-9d00-4a2f-b179-24d79eb24631",
          "url": "https://gitlab.com/gitlab-org/security-products/gemnasium-db/-/blob/v1.2.142/pypi/Pillow/CVE-2016-9190.yml"
        },
        {
          "type": "cve",
          "name": "CVE-2016-9190",
          "value": "CVE-2016-9190",
          "url": "https://cve.mitre.org/cgi-bin/cvename.cgi?name=CVE-2016-9190"
        }
      ],
      "links": [
        {
          "url": "http://pillow.readthedocs.io/en/3.4.x/releasenotes/3.3.2.html"
        },
        {
          "url": "https://github.com/python-pillow/Pillow/issues/2105"
        },
        {
          "url": "https://github.com/python-pillow/Pillow/pull/2146/commits/5d8a0be45aad78c5a22c8d099118ee26ef8144af"
        }
      ]
    },
    {
      "id": "f9b6df2a24c749d70af21abdbcad58a4cfe61de703bfdb8f1e2684494d1b74a3",
      "category": "dependency_scanning",
      "name": "Buffer Overflow",
      "message": "Buffer Overflow in Pillow",
      "description": "In Pillow, there are two Buffer Overflows in `libImaging/TiffDecode.c`.",
      "cve": "cust-reqs.foo:Pillow:gemnasium:c8e78ca9-cb61-4a37-b242-9a4112c7023c",
      "severity": "High",
      "solution": "Upgrade to version 7.1.0 or above.",
      "scanner": {
        "id": "gemnasium",
        "name": "Gemnasium"
      },
      "location": {
        "file": "cust-reqs.foo",
        "dependency": {
          "package": {
            "name": "Pillow"
          },
          "version": "3.3.1"
        }
      },
      "identifiers": [
        {
          "type": "gemnasium",
          "name": "Gemnasium-c8e78ca9-cb61-4a37-b242-9a4112c7023c",
          "value": "c8e78ca9-cb61-4a37-b242-9a4112c7023c",
          "url": "https://gitlab.com/gitlab-org/security-products/gemnasium-db/-/blob/v1.2.142/pypi/Pillow/CVE-2020-10379.yml"
        },
        {
          "type": "cve",
          "name": "CVE-2020-10379",
          "value": "CVE-2020-10379",
          "url": "https://cve.mitre.org/cgi-bin/cvename.cgi?name=CVE-2020-10379"
        }
      ],
      "links": [
        {
          "url": "https://nvd.nist.gov/vuln/detail/CVE-2020-10379"
        }
      ]
    },
    {
      "id": "64ec4b63884f8b56496bb6787b650b0063ae9d898bc573e1b599c0a54a4aedb0",
      "category": "dependency_scanning",
      "name": "Improper Input Validation",
      "message": "Improper Input Validation in pip",
      "description": "An issue was discovered in pip (all versions) because it installs the version with the highest version number, even if the user had intended to obtain a private package from a private index. This only affects use of the `--extra-index-url` option, and exploitation requires that the package does not already exist in the public index (and thus the attacker can put the package there with an arbitrary version number).",
      "cve": "cust-reqs.foo:pip:gemnasium:f42440cc-317f-449c-87c3-016bee39ecbe",
      "severity": "High",
      "solution": "Unfortunately, there is no solution available yet.",
      "scanner": {
        "id": "gemnasium",
        "name": "Gemnasium"
      },
      "location": {
        "file": "cust-reqs.foo",
        "dependency": {
          "package": {
            "name": "pip"
          },
          "version": "21.0.1"
        }
      },
      "identifiers": [
        {
          "type": "gemnasium",
          "name": "Gemnasium-f42440cc-317f-449c-87c3-016bee39ecbe",
          "value": "f42440cc-317f-449c-87c3-016bee39ecbe",
          "url": "https://gitlab.com/gitlab-org/security-products/gemnasium-db/-/blob/v1.2.142/pypi/pip/CVE-2018-20225.yml"
        },
        {
          "type": "cve",
          "name": "CVE-2018-20225",
          "value": "CVE-2018-20225",
          "url": "https://cve.mitre.org/cgi-bin/cvename.cgi?name=CVE-2018-20225"
        }
      ],
      "links": [
        {
          "url": "https://nvd.nist.gov/vuln/detail/CVE-2018-20225"
        },
        {
          "url": "https://pip.pypa.io/en/stable/news/"
        }
      ]
    },
    {
      "id": "2850c9593bb14a57701cd8c16b4f1bd446b3e3e4bedf0108abc38c388a0202da",
      "category": "dependency_scanning",
      "name": "Cross-site Scripting",
      "message": "Cross-site Scripting in Django",
      "description": "An issue was discovered in Django. The `clickable` Current URL value displayed by the `AdminURLFieldWidget` displays the provided value without validating it as a safe URL. Thus, an unvalidated value stored in the database, or a value provided as a URL query parameter payload, could result in a clickable JavaScript link.",
      "cve": "cust-reqs.foo:Django:gemnasium:149e1ab4-7152-4fa8-a40a-9a50a31d6d2f",
      "severity": "Medium",
      "solution": "Upgrade to versions 1.11.21, 2.1.9, 2.2.2 or above.",
      "scanner": {
        "id": "gemnasium",
        "name": "Gemnasium"
      },
      "location": {
        "file": "cust-reqs.foo",
        "dependency": {
          "package": {
            "name": "Django"
          },
          "version": "1.11.4"
        }
      },
      "identifiers": [
        {
          "type": "gemnasium",
          "name": "Gemnasium-149e1ab4-7152-4fa8-a40a-9a50a31d6d2f",
          "value": "149e1ab4-7152-4fa8-a40a-9a50a31d6d2f",
          "url": "https://gitlab.com/gitlab-org/security-products/gemnasium-db/-/blob/v1.2.142/pypi/Django/CVE-2019-12308.yml"
        },
        {
          "type": "cve",
          "name": "CVE-2019-12308",
          "value": "CVE-2019-12308",
          "url": "https://cve.mitre.org/cgi-bin/cvename.cgi?name=CVE-2019-12308"
        }
      ],
      "links": [
        {
          "url": "https://docs.djangoproject.com/en/dev/releases/1.11.21/"
        },
        {
          "url": "https://docs.djangoproject.com/en/dev/releases/2.1.9/"
        },
        {
          "url": "https://docs.djangoproject.com/en/dev/releases/2.2.2/"
        },
        {
          "url": "https://docs.djangoproject.com/en/dev/releases/security/"
        },
        {
          "url": "https://github.com/django/django/commit/09186a13d975de6d049f8b3e05484f66b01ece62"
        },
        {
          "url": "https://github.com/django/django/commit/afddabf8428ddc89a332f7a78d0d21eaf2b5a673"
        },
        {
          "url": "https://github.com/django/django/commit/c238701859a52d584f349cce15d56c8e8137c52b"
        },
        {
          "url": "https://github.com/django/django/commit/deeba6d92006999fee9adfbd8be79bf0a59e8008"
        },
        {
          "url": "https://groups.google.com/forum/#!topic/django-announce/GEbHU7YoVz8"
        },
        {
          "url": "https://nvd.nist.gov/vuln/detail/CVE-2019-12308"
        },
        {
          "url": "https://www.djangoproject.com/weblog/2019/jun/03/security-releases/"
        }
      ]
    },
    {
      "id": "08db37026f09aad57d7482648dea706f84d92eba344bcabd57856a57d5e31a6f",
      "category": "dependency_scanning",
      "name": "Incorrect Regular Expression",
      "message": "Incorrect Regular Expression in Django",
      "description": "If `django.utils.text.Truncator`'s `chars()` and `words()` methods were passed the `html=True` argument, they were extremely slow to evaluate certain inputs due to a catastrophic backtracking vulnerability in a regular expression. The `chars()` and words()` methods are used to implement the `truncatechars_html` and `truncatewords_html` template filters, which were thus vulnerable.",
      "cve": "cust-reqs.foo:Django:gemnasium:1f2c3ac1-b729-4ac9-8c64-1dcbff84250e",
      "severity": "Medium",
      "solution": "Upgrade to versions 1.8.19, 1.11.11, 2.0.3 or above.",
      "scanner": {
        "id": "gemnasium",
        "name": "Gemnasium"
      },
      "location": {
        "file": "cust-reqs.foo",
        "dependency": {
          "package": {
            "name": "Django"
          },
          "version": "1.11.4"
        }
      },
      "identifiers": [
        {
          "type": "gemnasium",
          "name": "Gemnasium-1f2c3ac1-b729-4ac9-8c64-1dcbff84250e",
          "value": "1f2c3ac1-b729-4ac9-8c64-1dcbff84250e",
          "url": "https://gitlab.com/gitlab-org/security-products/gemnasium-db/-/blob/v1.2.142/pypi/Django/CVE-2018-7537.yml"
        },
        {
          "type": "cve",
          "name": "CVE-2018-7537",
          "value": "CVE-2018-7537",
          "url": "https://cve.mitre.org/cgi-bin/cvename.cgi?name=CVE-2018-7537"
        }
      ],
      "links": [
        {
          "url": "http://www.securityfocus.com/bid/103357"
        },
        {
          "url": "https://nvd.nist.gov/vuln/detail/CVE-2018-7537"
        },
        {
          "url": "https://www.djangoproject.com/weblog/2018/mar/06/security-releases/"
        }
      ]
    },
    {
      "id": "301b203ea79800c93de13096e8871af198c8209d7d4614a72a4debf455b59ce0",
      "category": "dependency_scanning",
      "name": "URL Redirection to Untrusted Site (Open Redirect)",
      "message": "URL Redirection to Untrusted Site (Open Redirect) in Django",
      "description": "`django.middleware.common.CommonMiddleware` has an Open Redirect.",
      "cve": "cust-reqs.foo:Django:gemnasium:25669e1a-dcaa-4722-adfc-0f089945c95c",
      "severity": "Medium",
      "solution": "Upgrade to versions 1.11.15, 2.0.8 or above.",
      "scanner": {
        "id": "gemnasium",
        "name": "Gemnasium"
      },
      "location": {
        "file": "cust-reqs.foo",
        "dependency": {
          "package": {
            "name": "Django"
          },
          "version": "1.11.4"
        }
      },
      "identifiers": [
        {
          "type": "gemnasium",
          "name": "Gemnasium-25669e1a-dcaa-4722-adfc-0f089945c95c",
          "value": "25669e1a-dcaa-4722-adfc-0f089945c95c",
          "url": "https://gitlab.com/gitlab-org/security-products/gemnasium-db/-/blob/v1.2.142/pypi/Django/CVE-2018-14574.yml"
        },
        {
          "type": "cve",
          "name": "CVE-2018-14574",
          "value": "CVE-2018-14574",
          "url": "https://cve.mitre.org/cgi-bin/cvename.cgi?name=CVE-2018-14574"
        }
      ],
      "links": [
        {
          "url": "http://www.securityfocus.com/bid/104970"
        },
        {
          "url": "http://www.securitytracker.com/id/1041403"
        },
        {
          "url": "https://nvd.nist.gov/vuln/detail/CVE-2018-14574"
        },
        {
          "url": "https://www.djangoproject.com/weblog/2018/aug/01/security-releases/"
        }
      ]
    },
    {
      "id": "84fce9510cf5ff9b9be9320104936778a4bc63be6fcd9fe4b053ef6d1ab11316",
      "category": "dependency_scanning",
      "name": "Improper Input Validation",
      "message": "Improper Input Validation in Django",
      "description": "An HTTP request is not redirected to HTTPS when the `SECURE_PROXY_SSL_HEADER` and `SECURE_SSL_REDIRECT` settings are used, and the proxy connects to Django via HTTPS. In other words, `django.http.HttpRequest.scheme` has incorrect behavior when a client uses HTTP.",
      "cve": "cust-reqs.foo:Django:gemnasium:42367e41-2c04-4f04-bdaa-ea72d0957ef8",
      "severity": "Medium",
      "solution": "Upgrade to versions 1.11.22, 2.1.10, 2.2.3 or above.",
      "scanner": {
        "id": "gemnasium",
        "name": "Gemnasium"
      },
      "location": {
        "file": "cust-reqs.foo",
        "dependency": {
          "package": {
            "name": "Django"
          },
          "version": "1.11.4"
        }
      },
      "identifiers": [
        {
          "type": "gemnasium",
          "name": "Gemnasium-42367e41-2c04-4f04-bdaa-ea72d0957ef8",
          "value": "42367e41-2c04-4f04-bdaa-ea72d0957ef8",
          "url": "https://gitlab.com/gitlab-org/security-products/gemnasium-db/-/blob/v1.2.142/pypi/Django/CVE-2019-12781.yml"
        },
        {
          "type": "cve",
          "name": "CVE-2019-12781",
          "value": "CVE-2019-12781",
          "url": "https://cve.mitre.org/cgi-bin/cvename.cgi?name=CVE-2019-12781"
        }
      ],
      "links": [
        {
          "url": "https://docs.djangoproject.com/en/dev/releases/security/"
        },
        {
          "url": "https://nvd.nist.gov/vuln/detail/CVE-2019-12781"
        },
        {
          "url": "https://www.djangoproject.com/weblog/2019/jul/01/security-releases/"
        }
      ]
    },
    {
      "id": "dcd703aaa15fe4135c8d8417d2cf53c5a8f7c661a7e5750a6c529c6202652d2d",
      "category": "dependency_scanning",
      "name": "Incorrect Regular Expression",
      "message": "Incorrect Regular Expression in Django",
      "description": "An issue was discovered in Django. The `django.utils.html.urlize()` function was extremely slow to evaluate certain inputs due to catastrophic backtracking vulnerabilities in two regular expressions. The `urlize()` function is used to implement the urlize and urlizetrunc template filters, which were thus vulnerable.",
      "cve": "cust-reqs.foo:Django:gemnasium:483f1247-a680-44c4-b609-c7a3ac65bd82",
      "severity": "Medium",
      "solution": "Upgrade to versions 1.8.19, 1.11.11, 2.0.3 or above.",
      "scanner": {
        "id": "gemnasium",
        "name": "Gemnasium"
      },
      "location": {
        "file": "cust-reqs.foo",
        "dependency": {
          "package": {
            "name": "Django"
          },
          "version": "1.11.4"
        }
      },
      "identifiers": [
        {
          "type": "gemnasium",
          "name": "Gemnasium-483f1247-a680-44c4-b609-c7a3ac65bd82",
          "value": "483f1247-a680-44c4-b609-c7a3ac65bd82",
          "url": "https://gitlab.com/gitlab-org/security-products/gemnasium-db/-/blob/v1.2.142/pypi/Django/CVE-2018-7536.yml"
        },
        {
          "type": "cve",
          "name": "CVE-2018-7536",
          "value": "CVE-2018-7536",
          "url": "https://cve.mitre.org/cgi-bin/cvename.cgi?name=CVE-2018-7536"
        }
      ],
      "links": [
        {
          "url": "http://www.securityfocus.com/bid/103361"
        },
        {
          "url": "https://nvd.nist.gov/vuln/detail/CVE-2018-7536"
        },
        {
          "url": "https://www.djangoproject.com/weblog/2018/mar/06/security-releases/"
        }
      ]
    },
    {
      "id": "e56f2e6b2a6d6ea44f1765c6c285884175af027b4ed4d2ab7faccd62e5b721d0",
      "category": "dependency_scanning",
      "name": "Possible XSS in traceback section of technical 500 debug page",
      "message": "Possible XSS in traceback section of technical 500 debug page in Django",
      "description": "HTML auto-escaping was disabled in a portion of the template for the technical debug page. Given the right circumstances, this allowed a cross-site scripting attack. This vulnerability shouldn't affect most production sites since you shouldn't run with `DEBUG = True` (which makes this page accessible) in your production settings.",
      "cve": "cust-reqs.foo:Django:gemnasium:6162a015-8635-4a15-8d7c-dc9321db366f",
      "severity": "Medium",
      "solution": "Upgrade to versions 1.10.8, 1.11.5 or above.",
      "scanner": {
        "id": "gemnasium",
        "name": "Gemnasium"
      },
      "location": {
        "file": "cust-reqs.foo",
        "dependency": {
          "package": {
            "name": "Django"
          },
          "version": "1.11.4"
        }
      },
      "identifiers": [
        {
          "type": "gemnasium",
          "name": "Gemnasium-6162a015-8635-4a15-8d7c-dc9321db366f",
          "value": "6162a015-8635-4a15-8d7c-dc9321db366f",
          "url": "https://gitlab.com/gitlab-org/security-products/gemnasium-db/-/blob/v1.2.142/pypi/Django/CVE-2017-12794.yml"
        },
        {
          "type": "cve",
          "name": "CVE-2017-12794",
          "value": "CVE-2017-12794",
          "url": "https://cve.mitre.org/cgi-bin/cvename.cgi?name=CVE-2017-12794"
        }
      ],
      "links": [
        {
          "url": "http://www.securityfocus.com/bid/100643"
        },
        {
          "url": "http://www.securitytracker.com/id/1039264"
        },
        {
          "url": "https://nvd.nist.gov/vuln/detail/CVE-2017-12794"
        },
        {
          "url": "https://www.djangoproject.com/weblog/2017/sep/05/security-releases/"
        }
      ]
    },
    {
      "id": "4535c81e0bad3699af669633b5d8d907067b36ce1e39e7b9ae51577f6053d1fa",
      "category": "dependency_scanning",
      "name": "Content Spoofing",
      "message": "Content Spoofing in Django",
      "description": "Improper Neutralization of Special Elements in Output Used by a Downstream Component issue exists in `django.views.defaults.page_not_found()`, leading to content spoofing (in a 404 error page) if a user fails to recognize that a crafted URL has malicious content.",
      "cve": "cust-reqs.foo:Django:gemnasium:94f5e552-ad49-49c7-bd9f-8857bba2354b",
      "severity": "Medium",
      "solution": "Upgrade to versions 1.11.18, 2.0.10, 2.1.5 or above.",
      "scanner": {
        "id": "gemnasium",
        "name": "Gemnasium"
      },
      "location": {
        "file": "cust-reqs.foo",
        "dependency": {
          "package": {
            "name": "Django"
          },
          "version": "1.11.4"
        }
      },
      "identifiers": [
        {
          "type": "gemnasium",
          "name": "Gemnasium-94f5e552-ad49-49c7-bd9f-8857bba2354b",
          "value": "94f5e552-ad49-49c7-bd9f-8857bba2354b",
          "url": "https://gitlab.com/gitlab-org/security-products/gemnasium-db/-/blob/v1.2.142/pypi/Django/CVE-2019-3498.yml"
        },
        {
          "type": "cve",
          "name": "CVE-2019-3498",
          "value": "CVE-2019-3498",
          "url": "https://cve.mitre.org/cgi-bin/cvename.cgi?name=CVE-2019-3498"
        }
      ],
      "links": [
        {
          "url": "http://www.securityfocus.com/bid/106453"
        },
        {
          "url": "https://cve.mitre.org/cgi-bin/cvename.cgi?name=CVE-2019-3498"
        },
        {
          "url": "https://cwe.mitre.org/data/definitions/148.html"
        },
        {
          "url": "https://docs.djangoproject.com/en/dev/releases/security/"
        },
        {
          "url": "https://groups.google.com/forum/#!topic/django-announce/VYU7xQQTEPQ"
        },
        {
          "url": "https://lists.debian.org/debian-lts-announce/2019/01/msg00005.html"
        },
        {
          "url": "https://lists.fedoraproject.org/archives/list/package-announce@lists.fedoraproject.org/message/HVXDOVCXLD74SHR2BENGCE2OOYYYWJHZ/"
        },
        {
          "url": "https://nvd.nist.gov/vuln/detail/CVE-2019-3498"
        },
        {
          "url": "https://usn.ubuntu.com/3851-1/"
        },
        {
          "url": "https://www.debian.org/security/2019/dsa-4363"
        },
        {
          "url": "https://www.djangoproject.com/weblog/2019/jan/04/security-releases/"
        }
      ]
    },
    {
      "id": "8a55cfbfb9e9afa558fb065839d616dd1aa8e53b8fd04bc514fd84b395c0e03c",
      "category": "dependency_scanning",
      "name": "Out-of-bounds Read",
      "message": "Out-of-bounds Read in Pillow",
      "description": "In `libImaging/PcxDecode.c` in Pillow, an out-of-bounds read can occur when reading PCX files where `state-\u003eshuffle` is instructed to read beyond `state-\u003ebuffer`.",
      "cve": "cust-reqs.foo:Pillow:gemnasium:6050e33d-07de-45a5-b2b0-f0aafe3febe1",
      "severity": "Medium",
      "solution": "Upgrade to version 7.1.0 or above.",
      "scanner": {
        "id": "gemnasium",
        "name": "Gemnasium"
      },
      "location": {
        "file": "cust-reqs.foo",
        "dependency": {
          "package": {
            "name": "Pillow"
          },
          "version": "3.3.1"
        }
      },
      "identifiers": [
        {
          "type": "gemnasium",
          "name": "Gemnasium-6050e33d-07de-45a5-b2b0-f0aafe3febe1",
          "value": "6050e33d-07de-45a5-b2b0-f0aafe3febe1",
          "url": "https://gitlab.com/gitlab-org/security-products/gemnasium-db/-/blob/v1.2.142/pypi/Pillow/CVE-2020-10378.yml"
        },
        {
          "type": "cve",
          "name": "CVE-2020-10378",
          "value": "CVE-2020-10378",
          "url": "https://cve.mitre.org/cgi-bin/cvename.cgi?name=CVE-2020-10378"
        }
      ],
      "links": [
        {
          "url": "https://nvd.nist.gov/vuln/detail/CVE-2020-10378"
        }
      ]
    },
    {
      "id": "dcd455a87acc38c036effc0256b0368c847c8f99d564cb3f86d020ff43a0956f",
      "category": "dependency_scanning",
      "name": "Out-of-bounds Read",
      "message": "Out-of-bounds Read in Pillow",
      "description": "Pillow has multiple out-of-bounds reads in `libImaging/FliDecode.c`.",
      "cve": "cust-reqs.foo:Pillow:gemnasium:9cbe5567-f5fc-40f8-a0d9-190a6f4ea001",
      "severity": "Medium",
      "solution": "Upgrade to version 7.1.0 or above.",
      "scanner": {
        "id": "gemnasium",
        "name": "Gemnasium"
      },
      "location": {
        "file": "cust-reqs.foo",
        "dependency": {
          "package": {
            "name": "Pillow"
          },
          "version": "3.3.1"
        }
      },
      "identifiers": [
        {
          "type": "gemnasium",
          "name": "Gemnasium-9cbe5567-f5fc-40f8-a0d9-190a6f4ea001",
          "value": "9cbe5567-f5fc-40f8-a0d9-190a6f4ea001",
          "url": "https://gitlab.com/gitlab-org/security-products/gemnasium-db/-/blob/v1.2.142/pypi/Pillow/CVE-2020-10177.yml"
        },
        {
          "type": "cve",
          "name": "CVE-2020-10177",
          "value": "CVE-2020-10177",
          "url": "https://cve.mitre.org/cgi-bin/cvename.cgi?name=CVE-2020-10177"
        }
      ],
      "links": [
        {
          "url": "https://nvd.nist.gov/vuln/detail/CVE-2020-10177"
        }
      ]
    },
    {
      "id": "4b3a1ed2b93776a535dcff8f21386c717b40706ed1868321443ff25e84cdee46",
      "category": "dependency_scanning",
      "name": "Integer overflow in Map.c",
      "message": "Integer overflow in Map.c in Pillow",
      "description": "Pillow allows context-dependent attackers to obtain sensitive information by using the \"crafted image file\" approach, related to an \"Integer Overflow\" issue affecting the `Image.core.map_buffer` in `map.c` component.",
      "cve": "cust-reqs.foo:Pillow:gemnasium:ab754212-345b-403a-8e1c-c5ec66ba0faf",
      "severity": "Medium",
      "solution": "Upgrade to latest version.",
      "scanner": {
        "id": "gemnasium",
        "name": "Gemnasium"
      },
      "location": {
        "file": "cust-reqs.foo",
        "dependency": {
          "package": {
            "name": "Pillow"
          },
          "version": "3.3.1"
        }
      },
      "identifiers": [
        {
          "type": "gemnasium",
          "name": "Gemnasium-ab754212-345b-403a-8e1c-c5ec66ba0faf",
          "value": "ab754212-345b-403a-8e1c-c5ec66ba0faf",
          "url": "https://gitlab.com/gitlab-org/security-products/gemnasium-db/-/blob/v1.2.142/pypi/Pillow/CVE-2016-9189.yml"
        },
        {
          "type": "cve",
          "name": "CVE-2016-9189",
          "value": "CVE-2016-9189",
          "url": "https://cve.mitre.org/cgi-bin/cvename.cgi?name=CVE-2016-9189"
        }
      ],
      "links": [
        {
          "url": "http://pillow.readthedocs.io/en/3.4.x/releasenotes/3.3.2.html"
        },
        {
          "url": "https://github.com/python-pillow/Pillow/issues/2105"
        },
        {
          "url": "https://github.com/python-pillow/Pillow/pull/2146/commits/c50ebe6459a131a1ea8ca531f10da616d3ceaa0f"
        }
      ]
    },
    {
      "id": "544fd1b922bf0d0d268351c49cbed41931699ccbe8bd6781690e2c5c79e7f265",
      "category": "dependency_scanning",
      "name": "Allocation of Resources Without Limits or Throttling",
      "message": "Allocation of Resources Without Limits or Throttling in Pillow",
      "description": "When reading specially crafted invalid image files, the library can either allocate very large amounts of memory or take an extremely long period of time to process the image.",
      "cve": "cust-reqs.foo:Pillow:gemnasium:b1ae8cca-4cf2-428f-bf9e-d33dc40f2589",
      "severity": "Medium",
      "solution": "Upgrade to version 6.2.0 or above.",
      "scanner": {
        "id": "gemnasium",
        "name": "Gemnasium"
      },
      "location": {
        "file": "cust-reqs.foo",
        "dependency": {
          "package": {
            "name": "Pillow"
          },
          "version": "3.3.1"
        }
      },
      "identifiers": [
        {
          "type": "gemnasium",
          "name": "Gemnasium-b1ae8cca-4cf2-428f-bf9e-d33dc40f2589",
          "value": "b1ae8cca-4cf2-428f-bf9e-d33dc40f2589",
          "url": "https://gitlab.com/gitlab-org/security-products/gemnasium-db/-/blob/v1.2.142/pypi/Pillow/CVE-2019-16865.yml"
        },
        {
          "type": "cve",
          "name": "CVE-2019-16865",
          "value": "CVE-2019-16865",
          "url": "https://cve.mitre.org/cgi-bin/cvename.cgi?name=CVE-2019-16865"
        }
      ],
      "links": [
        {
          "url": "https://nvd.nist.gov/vuln/detail/CVE-2019-16865"
        },
        {
          "url": "https://pillow.readthedocs.io/en/latest/releasenotes/6.2.0.html"
        }
      ]
    },
    {
      "id": "635faabca3f721b9e13ec729ac5c0e0baa6dd70cc6f2d70a5034f83692c300fb",
      "category": "dependency_scanning",
      "name": "Out-of-bounds Read",
      "message": "Out-of-bounds Read in Pillow",
      "description": "In `libImaging/Jpeg2KDecode.c` in Pillow, there are multiple out-of-bounds reads via a crafted JP2 file.",
      "cve": "cust-reqs.foo:Pillow:gemnasium:fa4f950f-a70f-42da-a81d-c76ceb05a053",
      "severity": "Medium",
      "solution": "Upgrade to version 7.0.0 or above.",
      "scanner": {
        "id": "gemnasium",
        "name": "Gemnasium"
      },
      "location": {
        "file": "cust-reqs.foo",
        "dependency": {
          "package": {
            "name": "Pillow"
          },
          "version": "3.3.1"
        }
      },
      "identifiers": [
        {
          "type": "gemnasium",
          "name": "Gemnasium-fa4f950f-a70f-42da-a81d-c76ceb05a053",
          "value": "fa4f950f-a70f-42da-a81d-c76ceb05a053",
          "url": "https://gitlab.com/gitlab-org/security-products/gemnasium-db/-/blob/v1.2.142/pypi/Pillow/CVE-2020-10994.yml"
        },
        {
          "type": "cve",
          "name": "CVE-2020-10994",
          "value": "CVE-2020-10994",
          "url": "https://cve.mitre.org/cgi-bin/cvename.cgi?name=CVE-2020-10994"
        }
      ],
      "links": [
        {
          "url": "https://nvd.nist.gov/vuln/detail/CVE-2020-10994"
        }
      ]
    }
  ],
  "remediations": [],
  "dependency_files": [
    {
      "path": "cust-reqs.foo",
      "package_manager": "pip",
      "dependencies": [
        {
          "package": {
            "name": "Django"
          },
          "version": "1.11.4"
        },
        {
          "package": {
            "name": "Pillow"
          },
          "version": "3.3.1"
        },
        {
          "package": {
            "name": "appdirs"
          },
          "version": "1.4.3"
        },
        {
          "package": {
            "name": "attrs"
          },
          "version": "19.3.0"
        },
        {
          "package": {
            "name": "beautifulsoup4"
          },
          "version": "4.6.0"
        },
        {
          "package": {
            "name": "certifi"
          },
          "version": "2019.11.28"
        },
        {
          "package": {
            "name": "distlib"
          },
          "version": "0.3.0"
        },
        {
          "package": {
            "name": "django-contrib-comments"
          },
          "version": "1.8.0"
        },
        {
          "package": {
            "name": "django-js-asset"
          },
          "version": "1.0.0"
        },
        {
          "package": {
            "name": "django-mptt"
          },
          "version": "0.9.0"
        },
        {
          "package": {
            "name": "django-tagging"
          },
          "version": "0.4.6"
        },
        {
          "package": {
            "name": "django-xmlrpc"
          },
          "version": "0.1.8"
        },
        {
          "package": {
            "name": "filelock"
          },
          "version": "3.0.12"
        },
        {
          "package": {
            "name": "ijson"
          },
          "version": "2.5.1"
        },
        {
          "package": {
            "name": "importlib-metadata"
          },
          "version": "1.5.0"
        },
        {
          "package": {
            "name": "importlib-resources"
          },
          "version": "1.4.0"
        },
        {
          "package": {
            "name": "isort"
          },
          "version": "4.3.21"
        },
        {
          "package": {
            "name": "jsonschema"
          },
          "version": "3.1.1"
        },
        {
          "package": {
            "name": "mots-vides"
          },
          "version": "2015.5.11"
        },
        {
          "package": {
            "name": "packaging"
          },
          "version": "19.2"
        },
        {
          "package": {
            "name": "pip"
          },
          "version": "21.0.1"
        },
        {
          "package": {
            "name": "pipdeptree"
          },
          "version": "0.13.2"
        },
        {
          "package": {
            "name": "pipenv"
          },
          "version": "2018.11.26"
        },
        {
          "package": {
            "name": "pyparsing"
          },
          "version": "2.2.0"
        },
        {
          "package": {
            "name": "pyrsistent"
          },
          "version": "0.15.7"
        },
        {
          "package": {
            "name": "pytz"
          },
          "version": "2018.3"
        },
        {
          "package": {
            "name": "regex"
          },
          "version": "2018.2.8"
        },
        {
          "package": {
            "name": "setuptools"
          },
          "version": "56.0.0"
        },
        {
          "package": {
            "name": "six"
          },
          "version": "1.14.0"
        },
        {
          "package": {
            "name": "virtualenv"
          },
          "version": "20.0.13"
        },
        {
          "package": {
            "name": "virtualenv-clone"
          },
          "version": "0.5.3"
        },
        {
          "package": {
            "name": "wheel"
          },
          "version": "0.36.2"
        },
        {
          "package": {
            "name": "zipp"
          },
          "version": "3.1.0"
        }
      ]
    }
  ],
  "scan": {
    "scanner": {
      "id": "gemnasium-python",
      "name": "gemnasium-python",
      "url": "https://gitlab.com/gitlab-org/security-products/analyzers/gemnasium-python",
      "vendor": {
        "name": "GitLab"
      },
      "version": "2.18.2"
    },
    "type": "dependency_scanning",
    "start_time": "2021-04-20T13:42:39",
    "end_time": "2021-04-20T13:42:55",
    "status": "success"
  }
}
